interactions:
- request:
    body: null
    headers:
      Accept:
      - '*/*'
      Accept-Encoding:
      - gzip, deflate
      Authorization:
      - DUMMY
      Connection:
      - keep-alive
      Content-Type:
      - application/json
      User-Agent:
      - facturapi-python/0.0.1
    method: GET
    uri: https://www.facturapi.io/v1/customers?limit=1
  response:
    body:
      string: '{"page":1,"total_pages":2,"total_results":2,"data":[{"address":{"country":"MEX"},"legal_name":"Remedios
        Varo","tax_id":"VAUR631216M55","email":"remedios@pintora.com","organization":"ORG01","created_at":"2020-12-01T02:29:45.038Z","livemode":false,"id":"CUSTOMER01"}]}'
    headers:
      Content-Length:
      - '275'
      Date:
      - Wed, 02 Dec 2020 00:39:39 GMT
      Server:
      - Google Frontend
      access-control-allow-origin:
      - '*'
      content-security-policy:
      - 'default-src ''self'';font-src https:;img-src data: https:;script-src ''unsafe-inline''
        https:;style-src https: ''unsafe-inline'';object-src ''none'';connect-src
        https:;frame-src https://js.stripe.com/;upgrade-insecure-requests'
      content-type:
      - application/json; charset=utf-8
      etag:
      - W/"12b-q8H3AwmSqVdPRU2Bc0PP766tKoE"
      expect-ct:
      - max-age=0
      referrer-policy:
      - no-referrer
      strict-transport-security:
      - max-age=15552000; includeSubDomains
      vary:
      - Accept-Encoding
      x-cloud-trace-context:
      - a8bd6f051a72d16cb477c12fd4cec11f/7558657553299806692
      - a8bd6f051a72d16cb477c12fd4cec11f
      x-content-type-options:
      - nosniff
      x-dns-prefetch-control:
      - 'off'
      x-download-options:
      - noopen
      x-frame-options:
      - SAMEORIGIN
      x-permitted-cross-domain-policies:
      - none
      x-xss-protection:
      - '0'
    status:
      code: 200
      message: OK
version: 1
